{
    "dark_patterns": [
        {
            "product_site": "http://www.bobswatches.com/omega/omega-railmaster-co-axial-master-chronometer-22012402001001.html",
            "dark_patterns": [
                {
                    "type": "Activity Notification",
                    "instance": [
                        " 6 People Viewing ",
                        " Customers Also Viewed  ",
                        "Product Reviews",
                        "2898 verified reviews in the past 12 months",
                        "I have made several purchases and one sales through Bob’s. The order process, payment, processing, and most importantly delivery have all been absolutely flawless. Very quick and efficient. I never look anywhere else for used Rolex. ",
                        " PayPal Visa Apruve   Mastercard American Express Discover Copyright Bob's Watches. All rights reserved. Bob's Watches is not affiliated with Rolex S.A., Rolex USA, or any of its subsidiaries. Bob's Watches is an independent watch dealer and is not sponsored by, associated with and/or affiliated with Rolex S.A., Rolex USA, or any other brand listed on its website. Bob's Watches only sells pre-owned watches and provides its own warranties on the watches it sells. The brand names and associated model names for Rolex, OMEGA and other manufacturers are the trademarks of their respective owners. "
                    ]
                },
                {
                    "type": "Countdown Timer",
                    "instance": [
                        " $3,495  Cash Wire Price ",
                        " Best Price$"
                    ]
                },
                {
                    "type": "High-demand Message",
                    "instance": [
                        "Regarding BOB’s WATCHES / *** When purchasing an item that is as expensive as a high quality pre owned ROLEX, you’d only hope for a great experience and great service....  when dealing with BOB’s WATCHES and specifically with *** in the Service/Sales Department, you will receive not only a GREAT EXPERIENCE and GREAT SERVICE, but a truly professional and yet personal connection in which you will treated with the high quality luxury sales & service you’d expect. After my 3rd ROLEX purchase from BOB’s WATCHES, I can truly say I am VERY thankful that I made all of my purchases with ***!!!!    Thank you, ***"
                    ]
                },
                {
                    "type": "Limited-time Message",
                    "instance": [
                        "  Maxim  Esquire  Inc 500  Forbes  Time  Wall Street Journal "
                    ]
                }
            ]
        },
        {
            "product_site": "http://www.bobswatches.com/omega/omega-seamaster-planet-ocean-600m-co-axial-master-chronometer.html",
            "dark_patterns": [
                {
                    "type": "Activity Notification",
                    "instance": [
                        " 5 People Viewing ",
                        " Customers Also Viewed  ",
                        "Product Reviews",
                        "2898 verified reviews in the past 12 months",
                        "I have made several purchases and one sales through Bob’s. The order process, payment, processing, and most importantly delivery have all been absolutely flawless. Very quick and efficient. I never look anywhere else for used Rolex. ",
                        " PayPal Visa Apruve   Mastercard American Express Discover Copyright Bob's Watches. All rights reserved. Bob's Watches is not affiliated with Rolex S.A., Rolex USA, or any of its subsidiaries. Bob's Watches is an independent watch dealer and is not sponsored by, associated with and/or affiliated with Rolex S.A., Rolex USA, or any other brand listed on its website. Bob's Watches only sells pre-owned watches and provides its own warranties on the watches it sells. The brand names and associated model names for Rolex, OMEGA and other manufacturers are the trademarks of their respective owners. "
                    ]
                },
                {
                    "type": "Countdown Timer",
                    "instance": [
                        " $4,595  Cash Wire Price ",
                        " Best Price$"
                    ]
                },
                {
                    "type": "High-demand Message",
                    "instance": [
                        "Regarding BOB’s WATCHES / *** When purchasing an item that is as expensive as a high quality pre owned ROLEX, you’d only hope for a great experience and great service....  when dealing with BOB’s WATCHES and specifically with *** in the Service/Sales Department, you will receive not only a GREAT EXPERIENCE and GREAT SERVICE, but a truly professional and yet personal connection in which you will treated with the high quality luxury sales & service you’d expect. After my 3rd ROLEX purchase from BOB’s WATCHES, I can truly say I am VERY thankful that I made all of my purchases with ***!!!!    Thank you, ***"
                    ]
                },
                {
                    "type": "Limited-time Message",
                    "instance": [
                        "  Maxim  Esquire  Inc 500  Forbes  Time  Wall Street Journal "
                    ]
                }
            ]
        },
        {
            "product_site": "http://www.bobswatches.com/omega/omega-speedmaster-limited-edition-31133403002001.html",
            "dark_patterns": [
                {
                    "type": "Activity Notification",
                    "instance": [
                        " Omega Speedmaster Limited Edition 311.33.40.30.02.001 ",
                        " 7 People Viewing ",
                        " Customers Also Viewed  ",
                        "Product Reviews",
                        "2898 verified reviews in the past 12 months",
                        "I have made several purchases and one sales through Bob’s. The order process, payment, processing, and most importantly delivery have all been absolutely flawless. Very quick and efficient. I never look anywhere else for used Rolex. ",
                        " PayPal Visa Apruve   Mastercard American Express Discover Copyright Bob's Watches. All rights reserved. Bob's Watches is not affiliated with Rolex S.A., Rolex USA, or any of its subsidiaries. Bob's Watches is an independent watch dealer and is not sponsored by, associated with and/or affiliated with Rolex S.A., Rolex USA, or any other brand listed on its website. Bob's Watches only sells pre-owned watches and provides its own warranties on the watches it sells. The brand names and associated model names for Rolex, OMEGA and other manufacturers are the trademarks of their respective owners. "
                    ]
                },
                {
                    "type": "Countdown Timer",
                    "instance": [
                        " $6,795  Cash Wire Price ",
                        " Best Price$"
                    ]
                },
                {
                    "type": "Limited-time Message",
                    "instance": [
                        "hard to find Omega 2998Dear Bob's, This is a watch that sold out on day 1 of being issued. From time to time I would see it on Ebay. In all instances well over the initial price of $6500 US. Between the price and the potential condition issues, I was never able to pull the trigger. When I saw the watch of my dreams and read the details, I pulled the trigger. I knew it would be in like new condition because I sold Bob's one of my Rolex watches recently. The price paid was fair and Bob's was extremely picky about the condition. By the way, the price I paid for my new Omega was slightly less than the initial offering price. A price that represented an exceptional value. Thank You Bob's PS it arrived in perfect condition the following morning at 8:45",
                        "  Maxim  Esquire  Inc 500  Forbes  Time  Wall Street Journal "
                    ]
                },
                {
                    "type": "High-demand Message",
                    "instance": [
                        "Regarding BOB’s WATCHES / *** When purchasing an item that is as expensive as a high quality pre owned ROLEX, you’d only hope for a great experience and great service....  when dealing with BOB’s WATCHES and specifically with *** in the Service/Sales Department, you will receive not only a GREAT EXPERIENCE and GREAT SERVICE, but a truly professional and yet personal connection in which you will treated with the high quality luxury sales & service you’d expect. After my 3rd ROLEX purchase from BOB’s WATCHES, I can truly say I am VERY thankful that I made all of my purchases with ***!!!!    Thank you, ***"
                    ]
                }
            ]
        },
        {
            "product_site": "http://www.bobswatches.com/omega/omega-seamaster-aqua-terra-steel-and-red-gold.html",
            "dark_patterns": [
                {
                    "type": "Activity Notification",
                    "instance": [
                        " Omega Seamaster Aqua Terra Steel & Red Gold ",
                        " 6 People Viewing ",
                        " Customers Also Viewed  ",
                        "         Omega Seamaster Aqua Terra Grey Teak Dial, 18k Red Gold Retail $18,200 (46% OFF)     $9,795.00    ",
                        "        Omega Seamaster Aqua Terra Grey Teak Dial, 18k Red Gold Retail $18,200 (46% OFF)     $9,795.00   ",
                        "Product Reviews",
                        "2898 verified reviews in the past 12 months",
                        "I have made several purchases and one sales through Bob’s. The order process, payment, processing, and most importantly delivery have all been absolutely flawless. Very quick and efficient. I never look anywhere else for used Rolex. ",
                        " PayPal Visa Apruve   Mastercard American Express Discover Copyright Bob's Watches. All rights reserved. Bob's Watches is not affiliated with Rolex S.A., Rolex USA, or any of its subsidiaries. Bob's Watches is an independent watch dealer and is not sponsored by, associated with and/or affiliated with Rolex S.A., Rolex USA, or any other brand listed on its website. Bob's Watches only sells pre-owned watches and provides its own warranties on the watches it sells. The brand names and associated model names for Rolex, OMEGA and other manufacturers are the trademarks of their respective owners. "
                    ]
                },
                {
                    "type": "Countdown Timer",
                    "instance": [
                        " $8,295  Cash Wire Price ",
                        " Best Price$"
                    ]
                },
                {
                    "type": "High-demand Message",
                    "instance": [
                        "Regarding BOB’s WATCHES / *** When purchasing an item that is as expensive as a high quality pre owned ROLEX, you’d only hope for a great experience and great service....  when dealing with BOB’s WATCHES and specifically with *** in the Service/Sales Department, you will receive not only a GREAT EXPERIENCE and GREAT SERVICE, but a truly professional and yet personal connection in which you will treated with the high quality luxury sales & service you’d expect. After my 3rd ROLEX purchase from BOB’s WATCHES, I can truly say I am VERY thankful that I made all of my purchases with ***!!!!    Thank you, ***"
                    ]
                },
                {
                    "type": "Limited-time Message",
                    "instance": [
                        "  Maxim  Esquire  Inc 500  Forbes  Time  Wall Street Journal "
                    ]
                }
            ]
        },
        {
            "product_site": "http://www.bobswatches.com/omega/pre-owned-omega-seamaster-aqua-terra-150m.html",
            "dark_patterns": [
                {
                    "type": "Activity Notification",
                    "instance": [
                        " 7 People Viewing ",
                        " Customers Also Viewed  ",
                        "Product Reviews",
                        "2898 verified reviews in the past 12 months",
                        "I have made several purchases and one sales through Bob’s. The order process, payment, processing, and most importantly delivery have all been absolutely flawless. Very quick and efficient. I never look anywhere else for used Rolex. ",
                        " PayPal Visa Apruve   Mastercard American Express Discover Copyright Bob's Watches. All rights reserved. Bob's Watches is not affiliated with Rolex S.A., Rolex USA, or any of its subsidiaries. Bob's Watches is an independent watch dealer and is not sponsored by, associated with and/or affiliated with Rolex S.A., Rolex USA, or any other brand listed on its website. Bob's Watches only sells pre-owned watches and provides its own warranties on the watches it sells. The brand names and associated model names for Rolex, OMEGA and other manufacturers are the trademarks of their respective owners. "
                    ]
                },
                {
                    "type": "Countdown Timer",
                    "instance": [
                        " $6,095  Cash Wire Price ",
                        " Best Price$"
                    ]
                },
                {
                    "type": "High-demand Message",
                    "instance": [
                        "Regarding BOB’s WATCHES / *** When purchasing an item that is as expensive as a high quality pre owned ROLEX, you’d only hope for a great experience and great service....  when dealing with BOB’s WATCHES and specifically with *** in the Service/Sales Department, you will receive not only a GREAT EXPERIENCE and GREAT SERVICE, but a truly professional and yet personal connection in which you will treated with the high quality luxury sales & service you’d expect. After my 3rd ROLEX purchase from BOB’s WATCHES, I can truly say I am VERY thankful that I made all of my purchases with ***!!!!    Thank you, ***"
                    ]
                },
                {
                    "type": "Limited-time Message",
                    "instance": [
                        "  Maxim  Esquire  Inc 500  Forbes  Time  Wall Street Journal "
                    ]
                }
            ]
        },
        {
            "product_site": "http://www.bobswatches.com/omega/omega-speedmaster-moonwatch-31130423001005.html",
            "dark_patterns": [
                {
                    "type": "Activity Notification",
                    "instance": [
                        " 5 People Viewing ",
                        " Customers Also Viewed  ",
                        "Product Reviews",
                        "2898 verified reviews in the past 12 months",
                        "I have made several purchases and one sales through Bob’s. The order process, payment, processing, and most importantly delivery have all been absolutely flawless. Very quick and efficient. I never look anywhere else for used Rolex. ",
                        " PayPal Visa Apruve   Mastercard American Express Discover Copyright Bob's Watches. All rights reserved. Bob's Watches is not affiliated with Rolex S.A., Rolex USA, or any of its subsidiaries. Bob's Watches is an independent watch dealer and is not sponsored by, associated with and/or affiliated with Rolex S.A., Rolex USA, or any other brand listed on its website. Bob's Watches only sells pre-owned watches and provides its own warranties on the watches it sells. The brand names and associated model names for Rolex, OMEGA and other manufacturers are the trademarks of their respective owners. "
                    ]
                },
                {
                    "type": "Countdown Timer",
                    "instance": [
                        " $4,795  Cash Wire Price ",
                        " Best Price$"
                    ]
                },
                {
                    "type": "High-demand Message",
                    "instance": [
                        "Regarding BOB’s WATCHES / *** When purchasing an item that is as expensive as a high quality pre owned ROLEX, you’d only hope for a great experience and great service....  when dealing with BOB’s WATCHES and specifically with *** in the Service/Sales Department, you will receive not only a GREAT EXPERIENCE and GREAT SERVICE, but a truly professional and yet personal connection in which you will treated with the high quality luxury sales & service you’d expect. After my 3rd ROLEX purchase from BOB’s WATCHES, I can truly say I am VERY thankful that I made all of my purchases with ***!!!!    Thank you, ***"
                    ]
                },
                {
                    "type": "Limited-time Message",
                    "instance": [
                        "  Maxim  Esquire  Inc 500  Forbes  Time  Wall Street Journal "
                    ]
                }
            ]
        },
        {
            "product_site": "http://www.bobswatches.com/omega/omega-seamaster-ref-21022422001002.html",
            "dark_patterns": [
                {
                    "type": "Activity Notification",
                    "instance": [
                        " 6 People Viewing ",
                        " Customers Also Viewed  ",
                        "Product Reviews",
                        "2898 verified reviews in the past 12 months",
                        "I have made several purchases and one sales through Bob’s. The order process, payment, processing, and most importantly delivery have all been absolutely flawless. Very quick and efficient. I never look anywhere else for used Rolex. ",
                        " PayPal Visa Apruve   Mastercard American Express Discover Copyright Bob's Watches. All rights reserved. Bob's Watches is not affiliated with Rolex S.A., Rolex USA, or any of its subsidiaries. Bob's Watches is an independent watch dealer and is not sponsored by, associated with and/or affiliated with Rolex S.A., Rolex USA, or any other brand listed on its website. Bob's Watches only sells pre-owned watches and provides its own warranties on the watches it sells. The brand names and associated model names for Rolex, OMEGA and other manufacturers are the trademarks of their respective owners. "
                    ]
                },
                {
                    "type": "Countdown Timer",
                    "instance": [
                        " $5,995  Cash Wire Price ",
                        " Best Price$"
                    ]
                },
                {
                    "type": "High-demand Message",
                    "instance": [
                        "Regarding BOB’s WATCHES / *** When purchasing an item that is as expensive as a high quality pre owned ROLEX, you’d only hope for a great experience and great service....  when dealing with BOB’s WATCHES and specifically with *** in the Service/Sales Department, you will receive not only a GREAT EXPERIENCE and GREAT SERVICE, but a truly professional and yet personal connection in which you will treated with the high quality luxury sales & service you’d expect. After my 3rd ROLEX purchase from BOB’s WATCHES, I can truly say I am VERY thankful that I made all of my purchases with ***!!!!    Thank you, ***"
                    ]
                },
                {
                    "type": "Limited-time Message",
                    "instance": [
                        "  Maxim  Esquire  Inc 500  Forbes  Time  Wall Street Journal "
                    ]
                }
            ]
        },
        {
            "product_site": "http://www.bobswatches.com/omega/omega-speedmaster-dark-side-of-the-moon.html",
            "dark_patterns": [
                {
                    "type": "Activity Notification",
                    "instance": [
                        " 4 People Viewing ",
                        " Customers Also Viewed  ",
                        "Product Reviews",
                        "2898 verified reviews in the past 12 months",
                        "I have made several purchases and one sales through Bob’s. The order process, payment, processing, and most importantly delivery have all been absolutely flawless. Very quick and efficient. I never look anywhere else for used Rolex. ",
                        " PayPal Visa Apruve   Mastercard American Express Discover Copyright Bob's Watches. All rights reserved. Bob's Watches is not affiliated with Rolex S.A., Rolex USA, or any of its subsidiaries. Bob's Watches is an independent watch dealer and is not sponsored by, associated with and/or affiliated with Rolex S.A., Rolex USA, or any other brand listed on its website. Bob's Watches only sells pre-owned watches and provides its own warranties on the watches it sells. The brand names and associated model names for Rolex, OMEGA and other manufacturers are the trademarks of their respective owners. "
                    ]
                },
                {
                    "type": "Countdown Timer",
                    "instance": [
                        " $8,995  Cash Wire Price ",
                        " Best Price$"
                    ]
                },
                {
                    "type": "High-demand Message",
                    "instance": [
                        "Regarding BOB’s WATCHES / *** When purchasing an item that is as expensive as a high quality pre owned ROLEX, you’d only hope for a great experience and great service....  when dealing with BOB’s WATCHES and specifically with *** in the Service/Sales Department, you will receive not only a GREAT EXPERIENCE and GREAT SERVICE, but a truly professional and yet personal connection in which you will treated with the high quality luxury sales & service you’d expect. After my 3rd ROLEX purchase from BOB’s WATCHES, I can truly say I am VERY thankful that I made all of my purchases with ***!!!!    Thank you, ***"
                    ]
                },
                {
                    "type": "Limited-time Message",
                    "instance": [
                        "  Maxim  Esquire  Inc 500  Forbes  Time  Wall Street Journal "
                    ]
                }
            ]
        },
        {
            "product_site": "http://www.bobswatches.com/omega/preowned-omega-seamaster-planet-ocean-600m.html",
            "dark_patterns": [
                {
                    "type": "Activity Notification",
                    "instance": [
                        " 6 People Viewing ",
                        " Customers Also Viewed  ",
                        "Product Reviews",
                        "2898 verified reviews in the past 12 months",
                        "I have made several purchases and one sales through Bob’s. The order process, payment, processing, and most importantly delivery have all been absolutely flawless. Very quick and efficient. I never look anywhere else for used Rolex. ",
                        " PayPal Visa Apruve   Mastercard American Express Discover Copyright Bob's Watches. All rights reserved. Bob's Watches is not affiliated with Rolex S.A., Rolex USA, or any of its subsidiaries. Bob's Watches is an independent watch dealer and is not sponsored by, associated with and/or affiliated with Rolex S.A., Rolex USA, or any other brand listed on its website. Bob's Watches only sells pre-owned watches and provides its own warranties on the watches it sells. The brand names and associated model names for Rolex, OMEGA and other manufacturers are the trademarks of their respective owners. "
                    ]
                },
                {
                    "type": "Countdown Timer",
                    "instance": [
                        " $9,595  Cash Wire Price ",
                        " Best Price$"
                    ]
                },
                {
                    "type": "High-demand Message",
                    "instance": [
                        "Regarding BOB’s WATCHES / *** When purchasing an item that is as expensive as a high quality pre owned ROLEX, you’d only hope for a great experience and great service....  when dealing with BOB’s WATCHES and specifically with *** in the Service/Sales Department, you will receive not only a GREAT EXPERIENCE and GREAT SERVICE, but a truly professional and yet personal connection in which you will treated with the high quality luxury sales & service you’d expect. After my 3rd ROLEX purchase from BOB’s WATCHES, I can truly say I am VERY thankful that I made all of my purchases with ***!!!!    Thank you, ***"
                    ]
                },
                {
                    "type": "Limited-time Message",
                    "instance": [
                        "  Maxim  Esquire  Inc 500  Forbes  Time  Wall Street Journal "
                    ]
                }
            ]
        },
        {
            "product_site": "http://www.bobswatches.com/omega/omega-seamaster-planet-ocean-600m-coaxial.html",
            "dark_patterns": [
                {
                    "type": "Activity Notification",
                    "instance": [
                        " 5 People Viewing ",
                        " Customers Also Viewed  ",
                        "Product Reviews",
                        "2898 verified reviews in the past 12 months",
                        "I have made several purchases and one sales through Bob’s. The order process, payment, processing, and most importantly delivery have all been absolutely flawless. Very quick and efficient. I never look anywhere else for used Rolex. ",
                        " PayPal Visa Apruve   Mastercard American Express Discover Copyright Bob's Watches. All rights reserved. Bob's Watches is not affiliated with Rolex S.A., Rolex USA, or any of its subsidiaries. Bob's Watches is an independent watch dealer and is not sponsored by, associated with and/or affiliated with Rolex S.A., Rolex USA, or any other brand listed on its website. Bob's Watches only sells pre-owned watches and provides its own warranties on the watches it sells. The brand names and associated model names for Rolex, OMEGA and other manufacturers are the trademarks of their respective owners. "
                    ]
                },
                {
                    "type": "Countdown Timer",
                    "instance": [
                        " $16,295  Cash Wire Price ",
                        " Best Price$"
                    ]
                },
                {
                    "type": "High-demand Message",
                    "instance": [
                        "Regarding BOB’s WATCHES / *** When purchasing an item that is as expensive as a high quality pre owned ROLEX, you’d only hope for a great experience and great service....  when dealing with BOB’s WATCHES and specifically with *** in the Service/Sales Department, you will receive not only a GREAT EXPERIENCE and GREAT SERVICE, but a truly professional and yet personal connection in which you will treated with the high quality luxury sales & service you’d expect. After my 3rd ROLEX purchase from BOB’s WATCHES, I can truly say I am VERY thankful that I made all of my purchases with ***!!!!    Thank you, ***"
                    ]
                },
                {
                    "type": "Limited-time Message",
                    "instance": [
                        "  Maxim  Esquire  Inc 500  Forbes  Time  Wall Street Journal "
                    ]
                }
            ]
        }
    ]
}