{
    "data": {
        "category": "Entertainment",
        "data": [
            {
                "domain": "http://www.amazon.com",
                "result": [
                    {
                        "product_site": "http://www.amazon.com/Nintendo-Switch-Neon-Blue-Joy%E2%80%91/dp/B07VGRJDFY",
                        "dark_pattern": []
                    },
                    {
                        "product_site": "http://www.amazon.com/AmazonBasics-6-Outlet-Surge-Protector-6-Foot/dp/B00TP1C51M",
                        "dark_pattern": []
                    },
                    {
                        "product_site": "http://www.amazon.com/AmazonBasics-High-Speed-HDMI-Cable-1-Pack/dp/B014I8SSD0",
                        "dark_pattern": []
                    },
                    {
                        "product_site": "http://www.amazon.com/Mario-Kart-8-Deluxe-Nintendo-Switch/dp/B01N1037CV",
                        "dark_pattern": []
                    },
                    {
                        "product_site": "http://www.amazon.com/AmazonBasics-Everyday-Alkaline-Batteries-8-Pack/dp/B00MH4QM1S",
                        "dark_pattern": []
                    },
                    {
                        "product_site": "http://www.amazon.com/adidas-Originals-X_PLR-Running-White/dp/B0728B6J9T",
                        "dark_pattern": []
                    },
                    {
                        "product_site": "http://www.amazon.com/Derek-Lam-10-Crosby-Hi-Waist/dp/B087X2HJ1M",
                        "dark_pattern": []
                    },
                    {
                        "product_site": "http://www.amazon.com/KB-LOW-Classic-Adjustable-Profile-Unstructured/dp/B00IELC6BS",
                        "dark_pattern": [
                            {
                                "type": "Activity Notification",
                                "instance": [
                                    " Sold by Official KBETHOS\u00ae Hats and Fulfilled by Amazon.   "
                                ]
                            }
                        ]
                    },
                    {
                        "product_site": "http://www.amazon.com/Harry-Potter-Complete-8-Film-Collection/dp/B005OCFGTO",
                        "dark_pattern": []
                    },
                    {
                        "product_site": "http://www.amazon.com/Animal-Crossing-Horizons-NTSC-Nintendo-Switch/dp/B07HTFD1SG",
                        "dark_pattern": [
                            {
                                "type": "Activity Notification",
                                "instance": [
                                    " Sold by Source7 and Fulfilled by Amazon.   "
                                ]
                            }
                        ]
                    }
                ]
            },
            {
                "domain": "http://www.amazon.co.uk",
                "result": [
                    {
                        "product_site": "http://www.amazon.co.uk/dp/B084125683/ref=gw_uk_desk_mso_eink_rk_seemore",
                        "dark_pattern": [
                            {
                                "type": "Activity Notification",
                                "instance": [
                                    "  Deliver to   United States  ",
                                    "Deliver to\u00a0United States"
                                ]
                            }
                        ]
                    },
                    {
                        "product_site": "http://www.amazon.co.uk/Winkey-Commemorate-Anti-Allergy-Anti-Bacterial-Protectors/dp/B07C98VMZ6",
                        "dark_pattern": [
                            {
                                "type": "Activity Notification",
                                "instance": [
                                    "  Deliver to   United States  ",
                                    " Dispatched from and sold by Winkey Life.   ",
                                    "Deliver to\u00a0United States"
                                ]
                            },
                            {
                                "type": "Countdown Timer",
                                "instance": [
                                    "Usually dispatched within 6 to 10 days.Usually dispatched within 6 t\u2026"
                                ]
                            }
                        ]
                    },
                    {
                        "product_site": "http://www.amazon.co.uk/IMstick-All-Purpose-Smartphones-Stay-Home-Entertainment/dp/B082PZZDP4",
                        "dark_pattern": []
                    },
                    {
                        "product_site": "http://www.amazon.co.uk/Gritin-Skipping-Tangle-free-Adjustable-Exercises/dp/B0772M72CQ",
                        "dark_pattern": [
                            {
                                "type": "Activity Notification",
                                "instance": [
                                    "  Deliver to   United States  ",
                                    " Sold by Entligent Store and Fulfilled by Amazon.   ",
                                    "Deliver to\u00a0United States"
                                ]
                            }
                        ]
                    },
                    {
                        "product_site": "http://www.amazon.co.uk/dp/B084125683/ref=gw_uk_desk_mso_eink_rk",
                        "dark_pattern": [
                            {
                                "type": "Activity Notification",
                                "instance": [
                                    "  Deliver to   United States  ",
                                    "Deliver to\u00a0United States"
                                ]
                            }
                        ]
                    },
                    {
                        "product_site": "http://www.amazon.co.uk/Victrola-Suitcase-Bluetooth-3-Speed-Turntable/dp/B07J9PNW68",
                        "dark_pattern": []
                    },
                    {
                        "product_site": "http://www.amazon.co.uk/Explorer-2-Person-Inflatable-Aluminum-Output/dp/B07SX9P4CS",
                        "dark_pattern": [
                            {
                                "type": "Activity Notification",
                                "instance": [
                                    "  Deliver to   United States  ",
                                    "        Deliver to\u00a0United States       ",
                                    "     Deliver to\u00a0United States    ",
                                    "    Deliver to\u00a0United States   ",
                                    "   Deliver to\u00a0United States  ",
                                    "Deliver to\u00a0United States"
                                ]
                            },
                            {
                                "type": "Countdown Timer",
                                "instance": [
                                    "Usually dispatched within 5 to 7 days.Usually dispatched within 5 t\u2026"
                                ]
                            },
                            {
                                "type": "Low-stock Message",
                                "instance": [
                                    "Only 4 left in stock.Only 4 left in stock."
                                ]
                            }
                        ]
                    },
                    {
                        "product_site": "http://www.amazon.co.uk/Dylon-2204553-DYLON-machine-Dye/dp/B073VPVWWM",
                        "dark_pattern": [
                            {
                                "type": "Activity Notification",
                                "instance": [
                                    "  Deliver to   United States  ",
                                    "Deliver to\u00a0United States"
                                ]
                            }
                        ]
                    },
                    {
                        "product_site": "http://www.amazon.co.uk/Crafts-4-ALL-4-All-Colour/dp/B076B4NMHS",
                        "dark_pattern": [
                            {
                                "type": "Activity Notification",
                                "instance": [
                                    "  Deliver to   United States  ",
                                    "Deliver to\u00a0United States"
                                ]
                            }
                        ]
                    },
                    {
                        "product_site": "http://www.amazon.co.uk/Curiscope-Multiverse-Interactive-Augmented-Essentials/dp/B0848FNF45",
                        "dark_pattern": [
                            {
                                "type": "Activity Notification",
                                "instance": [
                                    "  Deliver to   United States  ",
                                    "Deliver to\u00a0United States"
                                ]
                            },
                            {
                                "type": "Low-stock Message",
                                "instance": [
                                    "Only 4 left in stock.Only 4 left in stock."
                                ]
                            }
                        ]
                    }
                ]
            },
            {
                "domain": "http://www.barnesandnoble.com",
                "result": [
                    {
                        "product_site": "http://www.barnesandnoble.com/w/simon-vs-the-homo-sapiens-agenda-becky-albertalli/1119908802;jsessionid=1042FDAFA3CDBF13AC3FE9D40C6997EE.prodny_store02-atgap13?ean=9780062348685",
                        "dark_pattern": [
                            {
                                "type": "Activity Notification",
                                "instance": [
                                    "   \u00b7 2 months ago \u00a0 ",
                                    "   Yes \u00b7 0  0 people found this review helpful. Click to agree.    No \u00b7 0  0 people did not find this review helpful. Click to agree.  ",
                                    "   \u00b7 4 months ago \u00a0 ",
                                    "   Yes \u00b7 0  0 people found this review helpful. Click to agree.    No \u00b7 0  0 people did not find this review helpful. Click to agree.  ",
                                    "   \u00b7 4 months ago \u00a0 ",
                                    "   Yes \u00b7 0  0 people found this review helpful. Click to agree.    No \u00b7 0  0 people did not find this review helpful. Click to agree.  ",
                                    "   \u00b7 11 months ago \u00a0 ",
                                    "   Yes \u00b7 0  0 people found this review helpful. Click to agree.    No \u00b7 0  0 people did not find this review helpful. Click to agree.  ",
                                    "   Yes \u00b7 0  0 people found this review helpful. Click to agree.    No \u00b7 2  2 people did not find this review helpful. Click to agree.  ",
                                    "   Yes \u00b7 0  0 people found this review helpful. Click to agree.    No \u00b7 0  0 people did not find this review helpful. Click to agree.  ",
                                    "   Yes \u00b7 0  0 people found this review helpful. Click to agree.    No \u00b7 0  0 people did not find this review helpful. Click to agree.  ",
                                    "   Yes \u00b7 0  0 people found this review helpful. Click to agree.    No \u00b7 0  0 people did not find this review helpful. Click to agree.  "
                                ]
                            }
                        ]
                    },
                    {
                        "product_site": "http://www.barnesandnoble.com/w/ill-be-gone-in-the-dark-michelle-mcnamara/1126556548;jsessionid=1042FDAFA3CDBF13AC3FE9D40C6997EE.prodny_store02-atgap13?ean=9780062319791",
                        "dark_pattern": [
                            {
                                "type": "Activity Notification",
                                "instance": [
                                    "   \u00b7 2 months ago \u00a0 ",
                                    "   Yes \u00b7 1  1 person found this review helpful. Click to agree.    No \u00b7 0  0 people did not find this review helpful. Click to agree.  ",
                                    "   \u00b7 9 months ago \u00a0 ",
                                    "   Yes \u00b7 2  2 people found this review helpful. Click to agree.    No \u00b7 1  1 person did not find this review helpful. Click to agree.  ",
                                    "   \u00b7 10 months ago \u00a0 ",
                                    "   Yes \u00b7 0  0 people found this review helpful. Click to agree.    No \u00b7 1  1 person did not find this review helpful. Click to agree.  ",
                                    "   \u00b7 11 months ago \u00a0 ",
                                    "   Yes \u00b7 1  1 person found this review helpful. Click to agree.    No \u00b7 0  0 people did not find this review helpful. Click to agree.  ",
                                    "   Yes \u00b7 0  0 people found this review helpful. Click to agree.    No \u00b7 1  1 person did not find this review helpful. Click to agree.  ",
                                    "   \u00b7 2 years ago \u00a0 ",
                                    "   Yes \u00b7 0  0 people found this review helpful. Click to agree.    No \u00b7 0  0 people did not find this review helpful. Click to agree.  ",
                                    "   \u00b7 2 years ago \u00a0 ",
                                    "   Yes \u00b7 0  0 people found this review helpful. Click to agree.    No \u00b7 0  0 people did not find this review helpful. Click to agree.  ",
                                    "   \u00b7 2 years ago \u00a0 ",
                                    "   Yes \u00b7 1  1 person found this review helpful. Click to agree.    No \u00b7 0  0 people did not find this review helpful. Click to agree.  "
                                ]
                            }
                        ]
                    },
                    {
                        "product_site": "http://www.barnesandnoble.com/w/how-to-be-an-antiracist-ibram-x-kendi/1128688664;jsessionid=1042FDAFA3CDBF13AC3FE9D40C6997EE.prodny_store02-atgap13?ean=9780525509288",
                        "dark_pattern": [
                            {
                                "type": "Activity Notification",
                                "instance": [
                                    "   \u00b7 8 months ago \u00a0 ",
                                    "   \u00b7 9 months ago \u00a0 ",
                                    "   \u00b7 11 months ago \u00a0 ",
                                    "   \u00b7 11 months ago \u00a0 "
                                ]
                            }
                        ]
                    },
                    {
                        "product_site": "http://www.barnesandnoble.com/w/i-left-the-house-today-cassandra-calin/1134864092;jsessionid=1042FDAFA3CDBF13AC3FE9D40C6997EE.prodny_store02-atgap13?ean=9781524855574",
                        "dark_pattern": [
                            {
                                "type": "Activity Notification",
                                "instance": [
                                    "   Yes \u00b7 0  0 people found this review helpful. Click to agree.    No \u00b7 0  0 people did not find this review helpful. Click to agree.  ",
                                    "   Yes \u00b7 0  0 people found this review helpful. Click to agree.    No \u00b7 0  0 people did not find this review helpful. Click to agree.  ",
                                    "   Yes \u00b7 0  0 people found this review helpful. Click to agree.    No \u00b7 0  0 people did not find this review helpful. Click to agree.  ",
                                    "   Yes \u00b7 0  0 people found this review helpful. Click to agree.    No \u00b7 0  0 people did not find this review helpful. Click to agree.  ",
                                    "   Yes \u00b7 0  0 people found this review helpful. Click to agree.    No \u00b7 0  0 people did not find this review helpful. Click to agree.  ",
                                    "   \u00b7 2 months ago \u00a0 ",
                                    "   Yes \u00b7 0  0 people found this review helpful. Click to agree.    No \u00b7 0  0 people did not find this review helpful. Click to agree.  ",
                                    "   \u00b7 2 months ago \u00a0 ",
                                    "   Yes \u00b7 0  0 people found this review helpful. Click to agree.    No \u00b7 0  0 people did not find this review helpful. Click to agree.  ",
                                    "   \u00b7 2 months ago \u00a0 ",
                                    "   Yes \u00b7 0  0 people found this review helpful. Click to agree.    No \u00b7 0  0 people did not find this review helpful. Click to agree.  "
                                ]
                            }
                        ]
                    },
                    {
                        "product_site": "http://www.barnesandnoble.com/w/me-and-white-supremacy-layla-f-saad/1134769313;jsessionid=1042FDAFA3CDBF13AC3FE9D40C6997EE.prodny_store02-atgap13?ean=9781728209807",
                        "dark_pattern": [
                            {
                                "type": "Activity Notification",
                                "instance": [
                                    "   Yes \u00b7 7  7 people found this review helpful. Click to agree.    No \u00b7 4  4 people did not find this review helpful. Click to agree.  "
                                ]
                            }
                        ]
                    },
                    {
                        "product_site": "http://www.barnesandnoble.com/w/gone-with-the-wind-margaret-mitchell/1100216113;jsessionid=1042FDAFA3CDBF13AC3FE9D40C6997EE.prodny_store02-atgap13?ean=9781451635621",
                        "dark_pattern": [
                            {
                                "type": "Activity Notification",
                                "instance": [
                                    "   \u00b7 5 months ago \u00a0 ",
                                    "   Yes \u00b7 1  1 person found this review helpful. Click to agree.    No \u00b7 0  0 people did not find this review helpful. Click to agree.  ",
                                    "   \u00b7 6 months ago \u00a0 ",
                                    "   Yes \u00b7 1  1 person found this review helpful. Click to agree.    No \u00b7 0  0 people did not find this review helpful. Click to agree.  ",
                                    "   \u00b7 7 months ago \u00a0 ",
                                    "   Yes \u00b7 2  2 people found this review helpful. Click to agree.    No \u00b7 0  0 people did not find this review helpful. Click to agree.  ",
                                    "   \u00b7 8 months ago \u00a0 ",
                                    "   Yes \u00b7 1  1 person found this review helpful. Click to agree.    No \u00b7 0  0 people did not find this review helpful. Click to agree.  ",
                                    "   \u00b7 8 months ago \u00a0 ",
                                    "   Yes \u00b7 1  1 person found this review helpful. Click to agree.    No \u00b7 0  0 people did not find this review helpful. Click to agree.  ",
                                    "   \u00b7 11 months ago \u00a0 ",
                                    "   Yes \u00b7 2  2 people found this review helpful. Click to agree.    No \u00b7 0  0 people did not find this review helpful. Click to agree.  ",
                                    "   Yes \u00b7 1  1 person found this review helpful. Click to agree.    No \u00b7 0  0 people did not find this review helpful. Click to agree.  "
                                ]
                            }
                        ]
                    },
                    {
                        "product_site": "http://www.barnesandnoble.com/w/the-good-lord-bird-james-mcbride/1113861377;jsessionid=1042FDAFA3CDBF13AC3FE9D40C6997EE.prodny_store02-atgap13?ean=9781594632785",
                        "dark_pattern": [
                            {
                                "type": "Activity Notification",
                                "instance": [
                                    "   Yes \u00b7 0  0 people found this review helpful. Click to agree.    No \u00b7 0  0 people did not find this review helpful. Click to agree.  ",
                                    "   \u00b7 4 months ago \u00a0 ",
                                    "   Yes \u00b7 0  0 people found this review helpful. Click to agree.    No \u00b7 0  0 people did not find this review helpful. Click to agree.  ",
                                    "   Yes \u00b7 0  0 people found this review helpful. Click to agree.    No \u00b7 0  0 people did not find this review helpful. Click to agree.  ",
                                    "   \u00b7 5 years ago \u00a0 ",
                                    "   Yes \u00b7 0  0 people found this review helpful. Click to agree.    No \u00b7 0  0 people did not find this review helpful. Click to agree.  ",
                                    "   \u00b7 6 years ago \u00a0 ",
                                    "   Yes \u00b7 2  2 people found this review helpful. Click to agree.    No \u00b7 0  0 people did not find this review helpful. Click to agree.  ",
                                    "   \u00b7 6 years ago \u00a0 ",
                                    "   Yes \u00b7 0  0 people found this review helpful. Click to agree.    No \u00b7 4  4 people did not find this review helpful. Click to agree.  ",
                                    "   \u00b7 6 years ago \u00a0 ",
                                    "   Yes \u00b7 0  0 people found this review helpful. Click to agree.    No \u00b7 3  3 people did not find this review helpful. Click to agree.  ",
                                    "   \u00b7 6 years ago \u00a0 ",
                                    "   Yes \u00b7 0  0 people found this review helpful. Click to agree.    No \u00b7 1  1 person did not find this review helpful. Click to agree.  "
                                ]
                            }
                        ]
                    },
                    {
                        "product_site": "http://www.barnesandnoble.com/w/our-time-is-now-stacey-abrams/1135985442;jsessionid=1042FDAFA3CDBF13AC3FE9D40C6997EE.prodny_store02-atgap13?ean=9781250257703",
                        "dark_pattern": [
                            {
                                "type": "Activity Notification",
                                "instance": [
                                    "   \u00b7 2 months ago \u00a0 ",
                                    "   \u00b7 2 months ago \u00a0 "
                                ]
                            }
                        ]
                    },
                    {
                        "product_site": "http://www.barnesandnoble.com/w/throne-of-glass-sarah-j-maas/1108077808;jsessionid=1042FDAFA3CDBF13AC3FE9D40C6997EE.prodny_store02-atgap13?ean=9781619630345",
                        "dark_pattern": [
                            {
                                "type": "Activity Notification",
                                "instance": [
                                    "   Yes \u00b7 0  0 people found this review helpful. Click to agree.    No \u00b7 0  0 people did not find this review helpful. Click to agree.  ",
                                    "   \u00b7 3 months ago \u00a0 ",
                                    "   Yes \u00b7 0  0 people found this review helpful. Click to agree.    No \u00b7 0  0 people did not find this review helpful. Click to agree.  ",
                                    "   \u00b7 4 months ago \u00a0 ",
                                    "   Yes \u00b7 0  0 people found this review helpful. Click to agree.    No \u00b7 0  0 people did not find this review helpful. Click to agree.  ",
                                    "   \u00b7 4 months ago \u00a0 ",
                                    "   Yes \u00b7 0  0 people found this review helpful. Click to agree.    No \u00b7 0  0 people did not find this review helpful. Click to agree.  ",
                                    "   \u00b7 5 months ago \u00a0 ",
                                    "   Yes \u00b7 0  0 people found this review helpful. Click to agree.    No \u00b7 0  0 people did not find this review helpful. Click to agree.  ",
                                    "   \u00b7 6 months ago \u00a0 ",
                                    "   Yes \u00b7 0  0 people found this review helpful. Click to agree.    No \u00b7 0  0 people did not find this review helpful. Click to agree.  ",
                                    "   \u00b7 7 months ago \u00a0 ",
                                    "   Yes \u00b7 1  1 person found this review helpful. Click to agree.    No \u00b7 0  0 people did not find this review helpful. Click to agree.  ",
                                    "   \u00b7 9 months ago \u00a0 ",
                                    "   Yes \u00b7 0  0 people found this review helpful. Click to agree.    No \u00b7 0  0 people did not find this review helpful. Click to agree.  "
                                ]
                            }
                        ]
                    },
                    {
                        "product_site": "http://www.barnesandnoble.com/w/leave-only-footprints-conor-knighton/1129914661;jsessionid=1042FDAFA3CDBF13AC3FE9D40C6997EE.prodny_store02-atgap13?ean=9781984823540",
                        "dark_pattern": [
                            {
                                "type": "Activity Notification",
                                "instance": [
                                    "   \u00b7 2 months ago \u00a0 ",
                                    "   Yes \u00b7 0  0 people found this review helpful. Click to agree.    No \u00b7 0  0 people did not find this review helpful. Click to agree.  ",
                                    "   \u00b7 3 months ago \u00a0 "
                                ]
                            }
                        ]
                    }
                ]
            },
            {
                "domain": "http://www.funimation.com",
                "result": [
                    {
                        "product_site": "https://store.playstation.com/#!/en-us/apps/funimation/cid=UP2203-CUSA01881_00-FUNIMATION123456",
                        "dark_pattern": []
                    },
                    {
                        "product_site": "http://www.funimation.com/shows/that-time-i-got-reincarnated-as-a-slime/",
                        "dark_pattern": []
                    },
                    {
                        "product_site": "http://www.funimation.com/shows/bungo-and-alchemist-gears-of-judgement-/",
                        "dark_pattern": []
                    },
                    {
                        "product_site": "http://www.funimation.com/shows/fullmetal-alchemist-brotherhood/",
                        "dark_pattern": []
                    },
                    {
                        "product_site": "http://www.funimation.com/shop/figures-collectibles/dragon-ball-z-funko-pop-fun-exclusive-10in-shenron-metallic-acc-00558",
                        "dark_pattern": []
                    },
                    {
                        "product_site": "http://www.funimation.com/shop/figures-collectibles/my-hero-academia-funko-pop-all-might-silver-age-acc-00511",
                        "dark_pattern": []
                    },
                    {
                        "product_site": "http://www.funimation.com/shop/figures-collectibles/dragon-ball-z-funko-pop-king-kai-and-bubbles-acc-00506",
                        "dark_pattern": []
                    },
                    {
                        "product_site": "http://www.funimation.com/shop/figures-collectibles/dragon-ball-super-funko-pop-kale-caulifla-2pk-acc-00481",
                        "dark_pattern": []
                    },
                    {
                        "product_site": "http://www.funimation.com/shop/figures-collectibles/my-hero-academia-funko-pop-teacher-all-might-acc-00512",
                        "dark_pattern": []
                    },
                    {
                        "product_site": "http://www.funimation.com/shop/figures-collectibles/my-hero-academia-funko-pop-all-for-one-acc-00513",
                        "dark_pattern": []
                    }
                ]
            },
            {
                "domain": "http://www.bigbadtoystore.com",
                "result": [
                    {
                        "product_site": "http://www.bigbadtoystore.com/Product/VariationDetails/101761",
                        "dark_pattern": []
                    },
                    {
                        "product_site": "http://www.bigbadtoystore.com/Product/VariationDetails/127071",
                        "dark_pattern": []
                    },
                    {
                        "product_site": "http://www.bigbadtoystore.com/Product/VariationDetails/126905",
                        "dark_pattern": []
                    },
                    {
                        "product_site": "http://www.bigbadtoystore.com/Product/VariationDetails/105845",
                        "dark_pattern": []
                    },
                    {
                        "product_site": "http://www.bigbadtoystore.com/Product/VariationDetails/117462",
                        "dark_pattern": []
                    },
                    {
                        "product_site": "http://www.bigbadtoystore.com/Product/VariationDetails/127058",
                        "dark_pattern": [
                            {
                                "type": "Activity Notification",
                                "instance": [
                                    " BY  TOY NOTCH  - BRAND UNITED STATES OF UTOPIA (U.S.U.)  "
                                ]
                            }
                        ]
                    },
                    {
                        "product_site": "http://www.bigbadtoystore.com/Product/VariationDetails/124745",
                        "dark_pattern": []
                    },
                    {
                        "product_site": "http://www.bigbadtoystore.com/Product/VariationDetails/118063",
                        "dark_pattern": []
                    },
                    {
                        "product_site": "http://www.bigbadtoystore.com/Product/VariationDetails/118012",
                        "dark_pattern": []
                    },
                    {
                        "product_site": "http://www.bigbadtoystore.com/Product/VariationDetails/118015",
                        "dark_pattern": []
                    }
                ]
            },
            {
                "domain": "http://www.alibris.com",
                "result": [
                    {
                        "product_site": "http://www.alibris.com/Brain-Quest-Workbook-Grade-2-Liane-Onish/book/39193908",
                        "dark_pattern": []
                    },
                    {
                        "product_site": "http://www.alibris.com/Chicka-Chicka-Boom-Boom-Bill-Martin-Jr/book/1047213",
                        "dark_pattern": []
                    },
                    {
                        "product_site": "http://www.alibris.com/Mother-In-This-Moment/music/403929239",
                        "dark_pattern": []
                    },
                    {
                        "product_site": "http://www.alibris.com/Normal-People-Sally-Rooney/book/40456466",
                        "dark_pattern": []
                    },
                    {
                        "product_site": "http://www.alibris.com/The-X-Files/movie/100162748",
                        "dark_pattern": []
                    },
                    {
                        "product_site": "http://www.alibris.com/Chicka-Chicka-ABCs-and-123s-Collection-Chicka-Chicka-ABC-Chicka-Chicka-1-2-3-Words-Bill-Martin-Jr/book/39925499?matches=6",
                        "dark_pattern": []
                    },
                    {
                        "product_site": "http://www.alibris.com/Brown-Bear-Brown-Bear-What-Do-You-See-In-Farsi-and-English-Bill-Martin-Jr/book/28708023?matches=11",
                        "dark_pattern": []
                    },
                    {
                        "product_site": "http://www.alibris.com/Polar-Bear-Polar-Bear-What-Do-You-Hear-Bill-Martin-Jr/book/28304193?matches=275",
                        "dark_pattern": []
                    },
                    {
                        "product_site": "http://www.alibris.com/Up-and-Down-on-the-Merry-Go-Round-Bill-Martin-Jr/book/6948335?matches=54",
                        "dark_pattern": []
                    },
                    {
                        "product_site": "http://www.alibris.com/Brown-Bear-Brown-Bear-What-Do-You-See-Bill-Martin-Jr/book/828650?matches=533",
                        "dark_pattern": []
                    }
                ]
            },
            {
                "domain": "http://www.juno.co.uk",
                "result": [
                    {
                        "product_site": "http://www.juno.co.uk/products/chip-wickham-blue-to-red/776000-01/",
                        "dark_pattern": []
                    },
                    {
                        "product_site": "http://www.juno.co.uk/products/muzz/773848-01/",
                        "dark_pattern": []
                    },
                    {
                        "product_site": "http://www.juno.co.uk/products/rolling-blackouts-coastal-sideways-to-new-italy/772294-01/",
                        "dark_pattern": []
                    },
                    {
                        "product_site": "http://www.juno.co.uk/products/dyl-db1-ecou/775010-01/",
                        "dark_pattern": []
                    },
                    {
                        "product_site": "http://www.juno.co.uk/products/autarkic-terms-conditions/775914-01/",
                        "dark_pattern": []
                    },
                    {
                        "product_site": "http://www.juno.co.uk/products/gogo-penguin/769922-01/",
                        "dark_pattern": []
                    },
                    {
                        "product_site": "http://www.juno.co.uk/products/derijk-soul-wun-13th-hour-vol-5/775446-01/",
                        "dark_pattern": []
                    },
                    {
                        "product_site": "http://www.juno.co.uk/products/okain-there-was-a-time-ep/775944-01/",
                        "dark_pattern": []
                    },
                    {
                        "product_site": "http://www.juno.co.uk/products/bootie-grove-a-most-wanted-ltdblbl-007/775412-01/",
                        "dark_pattern": []
                    },
                    {
                        "product_site": "http://www.juno.co.uk/products/niklas-wandt-erdtone/775950-01/",
                        "dark_pattern": []
                    }
                ]
            },
            {
                "domain": "http://www.entertainmentearth.com",
                "result": [
                    {
                        "product_site": "http://www.entertainmentearth.com/s/star-wars/t",
                        "dark_pattern": [
                            {
                                "type": "Activity Notification",
                                "instance": [
                                    " New Pre-Orders Jul 22 ",
                                    " New Pre-Orders Jul 22 ",
                                    " New Pre-Orders Jul 21 ",
                                    " New Pre-Orders Jul 22 ",
                                    " New Pre-Orders Jul 21 ",
                                    " New Pre-Orders Jul 21 ",
                                    " New Pre-Orders Jul 21 "
                                ]
                            }
                        ]
                    },
                    {
                        "product_site": "http://www.entertainmentearth.com/s/batman/t",
                        "dark_pattern": [
                            {
                                "type": "Activity Notification",
                                "instance": [
                                    " New Pre-Orders Jul 15 ",
                                    " New Pre-Orders Jul 15 ",
                                    " New Pre-Orders Jul 21 ",
                                    " New Pre-Orders Jul 23 ",
                                    " New Pre-Orders Jul 23 ",
                                    " New Pre-Orders Jul 21 ",
                                    " New Pre-Orders Jul 07 "
                                ]
                            }
                        ]
                    },
                    {
                        "product_site": "http://www.entertainmentearth.com/product/FU2P48293EE",
                        "dark_pattern": [
                            {
                                "type": "Activity Notification",
                                "instance": [
                                    " Product Type: Pop! Vinyl Figures "
                                ]
                            }
                        ]
                    },
                    {
                        "product_site": "http://www.entertainmentearth.com/product/star-wars-the-mandalorian-chrome-10inch-pop-vinyl-figure/fu49931",
                        "dark_pattern": [
                            {
                                "type": "Activity Notification",
                                "instance": [
                                    " Product Type: Pop! Vinyl Figures "
                                ]
                            }
                        ]
                    },
                    {
                        "product_site": "http://www.entertainmentearth.com/product/marvel-maximum-venom-special-mea018-sp-figure-2pack-san-diego-comiccon-2020-previews-exclusive/dc6071467",
                        "dark_pattern": [
                            {
                                "type": "Activity Notification",
                                "instance": [
                                    " Product Type: Statues "
                                ]
                            }
                        ]
                    },
                    {
                        "product_site": "http://www.entertainmentearth.com/product/haunted-mansion-with-butler-pop-town/fu49934",
                        "dark_pattern": [
                            {
                                "type": "Activity Notification",
                                "instance": [
                                    " Product Type: Pop! Vinyl Figures "
                                ]
                            }
                        ]
                    },
                    {
                        "product_site": "http://www.entertainmentearth.com/product/star-wars-the-black-series-the-mandalorian-beskar-6inch-action-figure/hse9358",
                        "dark_pattern": [
                            {
                                "type": "Activity Notification",
                                "instance": [
                                    " Product Type: Action Figures "
                                ]
                            }
                        ]
                    },
                    {
                        "product_site": "http://www.entertainmentearth.com/product/predator-ultimate-alpha-predator-7inch-scale-100th-action-figure/nc51575",
                        "dark_pattern": [
                            {
                                "type": "Activity Notification",
                                "instance": [
                                    " Product Type: Action Figures "
                                ]
                            }
                        ]
                    },
                    {
                        "product_site": "http://www.entertainmentearth.com/product/dc-comic-red-hood-vs-deathstroke-comic-moment-pop-vinyl-2pack-san-diego-comiccon-2020-previews-exclusive/dc488860",
                        "dark_pattern": [
                            {
                                "type": "Activity Notification",
                                "instance": [
                                    " Product Type: Pop! Vinyl Figures "
                                ]
                            }
                        ]
                    },
                    {
                        "product_site": "http://www.entertainmentearth.com/product/tron-vhs-action-figure-box-set-san-diego-2020-comiccon-previews-exclusive/dc838631",
                        "dark_pattern": [
                            {
                                "type": "Activity Notification",
                                "instance": [
                                    " Product Type: Action Figures "
                                ]
                            }
                        ]
                    }
                ]
            },
            {
                "domain": "http://www.soundstrue.com",
                "result": [
                    {
                        "product_site": "https://product.soundstrue.com/year-of-energy-healing/?sq=1",
                        "dark_pattern": []
                    },
                    {
                        "product_site": "http://www.soundstrue.com/collections/new-releases/products/tara",
                        "dark_pattern": []
                    },
                    {
                        "product_site": "http://www.soundstrue.com/collections/new-releases/products/emotional-inflammation-1",
                        "dark_pattern": []
                    },
                    {
                        "product_site": "http://www.soundstrue.com/collections/new-releases/products/the-motherly-guide-to-becoming-mama",
                        "dark_pattern": []
                    },
                    {
                        "product_site": "http://www.soundstrue.com/collections/new-releases/products/you-were-never-broken",
                        "dark_pattern": []
                    },
                    {
                        "product_site": "http://www.soundstrue.com/collections/new-releases/products/emotional-inflammation",
                        "dark_pattern": []
                    },
                    {
                        "product_site": "http://www.soundstrue.com/collections/best-sellers/products/mindfulness-daily",
                        "dark_pattern": [
                            {
                                "type": "Limited-time Message",
                                "instance": [
                                    " Audio Download  Limited Time Only  ",
                                    " Limited Time Only ",
                                    "Limited Time Only"
                                ]
                            }
                        ]
                    },
                    {
                        "product_site": "http://www.soundstrue.com/collections/best-sellers/products/self-compassion-step-by-step",
                        "dark_pattern": [
                            {
                                "type": "Activity Notification",
                                "instance": [
                                    " Review postedalmost 6 years ago ",
                                    "   2 people voted yes     0 people voted no   ",
                                    " Review postedalmost 6 years ago ",
                                    "   1 person voted yes     0 people voted no   ",
                                    " Review postedalmost 6 years ago ",
                                    "   2 people voted yes     0 people voted no   ",
                                    " Review postedalmost 6 years ago ",
                                    "   1 person voted yes     0 people voted no   ",
                                    " Review postedabout 6 years ago ",
                                    "   1 person voted yes     0 people voted no   "
                                ]
                            }
                        ]
                    },
                    {
                        "product_site": "http://www.soundstrue.com/collections/best-sellers/products/living-from-a-place-of-surrender",
                        "dark_pattern": [
                            {
                                "type": "Limited-time Message",
                                "instance": [
                                    " One-Time Payment  Limited Time Only  ",
                                    " Limited Time Only ",
                                    "Limited Time Only",
                                    "Limited Time Only"
                                ]
                            }
                        ]
                    },
                    {
                        "product_site": "http://www.soundstrue.com/collections/best-sellers/products/mindfulness-meditation",
                        "dark_pattern": [
                            {
                                "type": "Activity Notification",
                                "instance": [
                                    " Review postedover 5 years ago ",
                                    "   2 people voted yes     0 people voted no   ",
                                    " Review postedalmost 6 years ago ",
                                    "   2 people voted yes     0 people voted no   ",
                                    " Review postedalmost 6 years ago ",
                                    "   1 person voted yes     0 people voted no   ",
                                    " Review postedalmost 6 years ago ",
                                    "   0 people voted yes     0 people voted no   ",
                                    " Review postedalmost 6 years ago ",
                                    "   0 people voted yes     0 people voted no   "
                                ]
                            }
                        ]
                    }
                ]
            },
            {
                "domain": "http://www.cdjapan.co.jp",
                "result": [
                    {
                        "product_site": "https://www.cdjapan.co.jp/product/UICY-40316",
                        "dark_pattern": []
                    },
                    {
                        "product_site": "https://www.cdjapan.co.jp/product/UICY-40317",
                        "dark_pattern": []
                    },
                    {
                        "product_site": "https://www.cdjapan.co.jp/product/UICY-40315",
                        "dark_pattern": []
                    },
                    {
                        "product_site": "https://www.cdjapan.co.jp/product/UICY-40318",
                        "dark_pattern": []
                    },
                    {
                        "product_site": "https://www.cdjapan.co.jp/product/LACM-14934",
                        "dark_pattern": []
                    },
                    {
                        "product_site": "https://www.cdjapan.co.jp/product/NEOIKT-1389",
                        "dark_pattern": []
                    },
                    {
                        "product_site": "https://www.cdjapan.co.jp/product/NEOIMP-17615",
                        "dark_pattern": []
                    },
                    {
                        "product_site": "https://www.cdjapan.co.jp/product/NEOBK-2397259",
                        "dark_pattern": []
                    },
                    {
                        "product_site": "https://www.cdjapan.co.jp/product/NEOGDS-106020",
                        "dark_pattern": []
                    },
                    {
                        "product_site": "https://www.cdjapan.co.jp/product/UICS-1363",
                        "dark_pattern": []
                    }
                ]
            },
            {
                "domain": "http://www.musicstack.com",
                "result": [
                    {
                        "product_site": "https://www.musicstack.com/item/640339765",
                        "dark_pattern": []
                    },
                    {
                        "product_site": "https://www.musicstack.com/item/617022939",
                        "dark_pattern": []
                    },
                    {
                        "product_site": "https://www.musicstack.com/item/618948968",
                        "dark_pattern": []
                    },
                    {
                        "product_site": "https://www.musicstack.com/item/618948957",
                        "dark_pattern": []
                    },
                    {
                        "product_site": "https://www.musicstack.com/item/585884447",
                        "dark_pattern": []
                    },
                    {
                        "product_site": "https://www.musicstack.com/item/646510108",
                        "dark_pattern": []
                    },
                    {
                        "product_site": "https://www.musicstack.com/item/595616999",
                        "dark_pattern": []
                    },
                    {
                        "product_site": "https://www.musicstack.com/item/585884451",
                        "dark_pattern": []
                    },
                    {
                        "product_site": "https://www.musicstack.com/item/595616969",
                        "dark_pattern": []
                    },
                    {
                        "product_site": "https://www.musicstack.com/item/585884449",
                        "dark_pattern": []
                    }
                ]
            },
            {
                "domain": "http://www.penguinmagic.com",
                "result": [
                    {
                        "product_site": "http://www.penguinmagic.com/p/13689",
                        "dark_pattern": [
                            {
                                "type": "Activity Notification",
                                "instance": [
                                    "   Cart |  Account |  Help ",
                                    " I am honestly impressed. I thought I had an idea of the method and it turns out that not only was I wrong, the real method is about 100 times easier than where my head went. Bravo. ",
                                    " I've purchased many great Penguin downloads in the past. This is NOT one of them. I'm pleased that several people enjoyed it. More power to them and good luck. Personally, I found the effect to be extremely boring. I will just file this purchase in my junk magic file. When I perform I do my best to invoke excitement in my audience. I'm afraid this one will just put them to sleep.  I've seen Dan do much better. ",
                                    " 7. Christopher Cart.. "
                                ]
                            }
                        ]
                    },
                    {
                        "product_site": "http://www.penguinmagic.com/p/7929",
                        "dark_pattern": [
                            {
                                "type": "Activity Notification",
                                "instance": [
                                    "   Cart |  Account |  Help ",
                                    " 7. Christopher Cart.. "
                                ]
                            }
                        ]
                    },
                    {
                        "product_site": "http://www.penguinmagic.com/p/S2541",
                        "dark_pattern": [
                            {
                                "type": "Activity Notification",
                                "instance": [
                                    "   Cart |  Account |  Help ",
                                    " 7. Christopher Cart.. "
                                ]
                            }
                        ]
                    },
                    {
                        "product_site": "http://www.penguinmagic.com/p/13688",
                        "dark_pattern": [
                            {
                                "type": "Activity Notification",
                                "instance": [
                                    "   Cart |  Account |  Help ",
                                    " 7. Christopher Cart.. "
                                ]
                            },
                            {
                                "type": "Confirmshaming",
                                "instance": [
                                    " I gave this only 3 stars because they don't speak English. Have someone translate your directions to english instead of subtitles which are very distracting. "
                                ]
                            }
                        ]
                    },
                    {
                        "product_site": "http://www.penguinmagic.com/p/13733",
                        "dark_pattern": [
                            {
                                "type": "Activity Notification",
                                "instance": [
                                    "   Cart |  Account |  Help ",
                                    " 7. Christopher Cart.. "
                                ]
                            }
                        ]
                    },
                    {
                        "product_site": "http://www.penguinmagic.com/p/13690",
                        "dark_pattern": [
                            {
                                "type": "Activity Notification",
                                "instance": [
                                    "   Cart |  Account |  Help ",
                                    " 7. Christopher Cart.. "
                                ]
                            }
                        ]
                    },
                    {
                        "product_site": "http://www.penguinmagic.com/p/10289",
                        "dark_pattern": [
                            {
                                "type": "Activity Notification",
                                "instance": [
                                    "   Cart |  Account |  Help ",
                                    " 7. Christopher Cart.. "
                                ]
                            }
                        ]
                    },
                    {
                        "product_site": "http://www.penguinmagic.com/p/13634",
                        "dark_pattern": [
                            {
                                "type": "Activity Notification",
                                "instance": [
                                    "   Cart |  Account |  Help ",
                                    " Crazy cash I noticed people were behind Dan looking over his ... ",
                                    " 7. Christopher Cart.. "
                                ]
                            }
                        ]
                    },
                    {
                        "product_site": "http://www.penguinmagic.com/p/282",
                        "dark_pattern": [
                            {
                                "type": "Activity Notification",
                                "instance": [
                                    "   Cart |  Account |  Help ",
                                    " 7. Christopher Cart.. "
                                ]
                            }
                        ]
                    },
                    {
                        "product_site": "http://www.penguinmagic.com/p/3858",
                        "dark_pattern": [
                            {
                                "type": "Activity Notification",
                                "instance": [
                                    "   Cart |  Account |  Help ",
                                    " Melt 2.0 Angles Just wondering if the angles on Melt 1.0 and Melt ... ",
                                    " Melt is an easy yet extremely powerful effect I personal would recommend this to any street magic performer. This trick requirs minimal practice for most people.Get MELT by Matthew Johnson TODAY!!!! ",
                                    " 7. Christopher Cart.. "
                                ]
                            }
                        ]
                    }
                ]
            },
            {
                "domain": "http://www.rightstufanime.com",
                "result": [
                    {
                        "product_site": "http://www.rightstufanime.com/Yachiyo-Nanami-Puella-Magi-Madoka-Magica-Magia-Record-Lay-Down-Plush",
                        "dark_pattern": [
                            {
                                "type": "Activity Notification",
                                "instance": [
                                    "  0   Your cart is empty   ",
                                    "  Your cart is empty  ",
                                    " Your cart is empty "
                                ]
                            }
                        ]
                    },
                    {
                        "product_site": "http://www.rightstufanime.com/Iroha-Tamaki-Puella-Magi-Madoka-Magica-Magia-Record-Lay-Down-Plush",
                        "dark_pattern": [
                            {
                                "type": "Activity Notification",
                                "instance": [
                                    "  0   Your cart is empty   ",
                                    "  Your cart is empty  ",
                                    " Your cart is empty "
                                ]
                            }
                        ]
                    },
                    {
                        "product_site": "http://www.rightstufanime.com/Mami-Tomoe-Puella-Magi-Madoka-Magica-Magia-Record-Lay-Down-Plush",
                        "dark_pattern": [
                            {
                                "type": "Activity Notification",
                                "instance": [
                                    "  0   Your cart is empty   ",
                                    "  Your cart is empty  ",
                                    " Your cart is empty "
                                ]
                            }
                        ]
                    },
                    {
                        "product_site": "http://www.rightstufanime.com/Rem-Little-Witching-Mischiefs-Ver-Re-ZERO-SP-Lay-Down-Plush",
                        "dark_pattern": [
                            {
                                "type": "Activity Notification",
                                "instance": [
                                    "  0   Your cart is empty   ",
                                    "  Your cart is empty  ",
                                    " Your cart is empty "
                                ]
                            }
                        ]
                    },
                    {
                        "product_site": "http://www.rightstufanime.com/Demon-Slayer-Vol-1-Rubber-Mascot-PVC-Keychain-Blind-Box",
                        "dark_pattern": [
                            {
                                "type": "Activity Notification",
                                "instance": [
                                    "  0   Your cart is empty   ",
                                    "  Your cart is empty  ",
                                    " Your cart is empty "
                                ]
                            }
                        ]
                    },
                    {
                        "product_site": "http://www.rightstufanime.com/category/Bags-SLASH-Accessories,Blankets,Clothing,Hats,Jewelry,Keychains,Lighters,Patches-Pins-and-Buttons,Tech-Accessories,Wallets/new-releases-and-pre-orders/Pre~order",
                        "dark_pattern": [
                            {
                                "type": "Activity Notification",
                                "instance": [
                                    "  0   Your cart is empty   ",
                                    "  Your cart is empty  ",
                                    " Your cart is empty "
                                ]
                            }
                        ]
                    },
                    {
                        "product_site": "http://www.rightstufanime.com/Fate-Grand-Order-5-Re-Run-Trading-Acrylic-Keychain-Blind-Box",
                        "dark_pattern": [
                            {
                                "type": "Activity Notification",
                                "instance": [
                                    "  0   Your cart is empty   ",
                                    "  Your cart is empty  ",
                                    " Your cart is empty "
                                ]
                            }
                        ]
                    },
                    {
                        "product_site": "http://www.rightstufanime.com/Fate-Grand-Order-Vol-6-Trading-Acrylic-Keychain-Blind-Box",
                        "dark_pattern": [
                            {
                                "type": "Activity Notification",
                                "instance": [
                                    "  0   Your cart is empty   ",
                                    "  Your cart is empty  ",
                                    " Your cart is empty "
                                ]
                            }
                        ]
                    },
                    {
                        "product_site": "http://www.rightstufanime.com/That-Time-I-Got-Reincarnated-As-A-Slime-Hooded-Sweatshirt",
                        "dark_pattern": [
                            {
                                "type": "Activity Notification",
                                "instance": [
                                    "  0   Your cart is empty   ",
                                    "  Your cart is empty  ",
                                    " Your cart is empty "
                                ]
                            }
                        ]
                    },
                    {
                        "product_site": "http://www.rightstufanime.com/category/Bags-SLASH-Accessories,Blankets,Clothing,Hats,Jewelry,Keychains,Lighters,Patches-Pins-and-Buttons,Tech-Accessories,Wallets/figure-type/Replica",
                        "dark_pattern": [
                            {
                                "type": "Activity Notification",
                                "instance": [
                                    "  0   Your cart is empty   ",
                                    "  Your cart is empty  ",
                                    " Your cart is empty "
                                ]
                            }
                        ]
                    }
                ]
            },
            {
                "domain": "http://www.hlj.com",
                "result": [
                    {
                        "product_site": "https://www.hlj.com/manecat-colection-1-engimono-1box-24pcs-kft55001",
                        "dark_pattern": []
                    },
                    {
                        "product_site": "https://www.hlj.com/1-6-scale-video-game-masterpiece-fully-poseable-figure-marvel-s-spider-man-spider-man-spider-armor-mk-iv-suit-version-htt60542",
                        "dark_pattern": []
                    },
                    {
                        "product_site": "https://www.hlj.com/jigsaw-puzzle-radio-eva-illustration-03-asuka-and-shinji-red-seaside-500pcs-38-x-53cm-yno06035",
                        "dark_pattern": []
                    },
                    {
                        "product_site": "https://www.hlj.com/fate-grand-order-design-produced-by-sanrio-finger-puppet-series-design-jump-out-nuimascot-1box-8pcs-pof60951",
                        "dark_pattern": []
                    },
                    {
                        "product_site": "https://www.hlj.com/1-4-scale-my-teen-romantic-comedy-snafu-too-yui-yuigahama-bare-leg-bunny-ver-pvc-fre29965",
                        "dark_pattern": []
                    },
                    {
                        "product_site": "https://www.hlj.com/jigsaw-puzzle-radio-eva-illustration-04-sports-mix-style-1000pcs-50-x-75cm-yno13367",
                        "dark_pattern": []
                    },
                    {
                        "product_site": "https://www.hlj.com/1-6-scale-soviet-goryunov-sg-43-s-l10-m30gm-heavy-machine-gun-ilk60602",
                        "dark_pattern": []
                    },
                    {
                        "product_site": "https://www.hlj.com/1-72-scale-wwii-german-sd-kfz-171-panther-a-early-late-2in1-dra7546",
                        "dark_pattern": []
                    },
                    {
                        "product_site": "https://www.hlj.com/1-24-scale-garland-sf-03-sf-03-g-circuit-mode-boost-mode-aos05906",
                        "dark_pattern": [
                            {
                                "type": "Low-stock Message",
                                "instance": [
                                    "   In Stock   ",
                                    "   In Stock   ",
                                    "  In Stock  ",
                                    "   In Stock   ",
                                    "   In Stock   ",
                                    "  In Stock  ",
                                    "   Out of Stock   ",
                                    "   Out of Stock   ",
                                    "  Out of Stock  ",
                                    "   In Stock   ",
                                    "   In Stock   ",
                                    "  In Stock  ",
                                    "   Out of Stock   ",
                                    "   Out of Stock   ",
                                    "  Out of Stock  "
                                ]
                            }
                        ]
                    },
                    {
                        "product_site": "https://www.hlj.com/1-72-scale-livonian-knights-xiii-xiv-a-d-33-figures-9-horses-zvezv8016",
                        "dark_pattern": [
                            {
                                "type": "Low-stock Message",
                                "instance": [
                                    "   Out of Stock   ",
                                    "   Out of Stock   ",
                                    "  Out of Stock  ",
                                    "   In Stock   ",
                                    "   In Stock   ",
                                    "  In Stock  "
                                ]
                            }
                        ]
                    }
                ]
            },
            {
                "domain": "http://www.fye.com",
                "result": [
                    {
                        "product_site": "http://www.fye.com/star-wars--the-mandalorian---the-child-vinyl-head-plush-fye.000000887961938814.html",
                        "dark_pattern": []
                    },
                    {
                        "product_site": "http://www.fye.com/avatar--the-last-airbender--the-complete-series-pid.cjvgymf05006uek705w5e84gx.html?cgid=movies_n_tv-movies-kids_n_family",
                        "dark_pattern": []
                    },
                    {
                        "product_site": "http://www.fye.com/corpse-bride-exclusive-blu-ray-steelbook-fye.000000883929680221.html?cgid=movies_n_tv-movies-kids_n_family",
                        "dark_pattern": []
                    },
                    {
                        "product_site": "http://www.fye.com/despicable-me-3-blu-ray-steelbook-fye.000000191329032879.html?cgid=movies_n_tv-movies-kids_n_family",
                        "dark_pattern": []
                    },
                    {
                        "product_site": "http://www.fye.com/despicable-me-2-blu-ray-steelbook-fye.000000191329036853.html?cgid=movies_n_tv-movies-kids_n_family",
                        "dark_pattern": []
                    },
                    {
                        "product_site": "http://www.fye.com/the-goonies-exclusive-blu-ray-steelbook-fye.000000883929648467.html?cgid=movies_n_tv-movies-kids_n_family",
                        "dark_pattern": []
                    },
                    {
                        "product_site": "http://www.fye.com/labyrinth-exclusive-blu-ray-steelbook-fye.000000043396545069.html?cgid=movies_n_tv-movies-kids_n_family",
                        "dark_pattern": []
                    },
                    {
                        "product_site": "http://www.fye.com/seuss-how-the-grinch-stole-christmas-pid.1784872267.html?cgid=movies_n_tv-movies-kids_n_family",
                        "dark_pattern": []
                    },
                    {
                        "product_site": "http://www.fye.com/the-hunchback-of-notre-dame-pid.623208518.html?cgid=movies_n_tv-movies-kids_n_family",
                        "dark_pattern": []
                    },
                    {
                        "product_site": "http://www.fye.com/a-goofy-movie-pid.1387234531.html?cgid=movies_n_tv-movies-kids_n_family",
                        "dark_pattern": []
                    }
                ]
            },
            {
                "domain": "http://www.shindigz.com",
                "result": [
                    {
                        "product_site": "http://www.shindigz.com/barbie-dreamhouse-adventures-personalized-water-bottle-labels/p/STWPWT-LAW0002-HDR",
                        "dark_pattern": [
                            {
                                "type": "Activity Notification",
                                "instance": [
                                    "                Log In       My Projects      Wish List       Cart 0  Loading...        0   ",
                                    "     Log In       My Projects      Wish List       Cart 0  Loading...    ",
                                    "   Cart 0  Loading... "
                                ]
                            }
                        ]
                    },
                    {
                        "product_site": "http://www.shindigz.com/barbie-dreamhouse-adventures-personalized-rectangle-banner/p/SBAN-LAW0002-HDR",
                        "dark_pattern": [
                            {
                                "type": "Activity Notification",
                                "instance": [
                                    "                Log In       My Projects      Wish List       Cart 0  Loading...        0   ",
                                    "     Log In       My Projects      Wish List       Cart 0  Loading...    ",
                                    "   Cart 0  Loading... "
                                ]
                            }
                        ]
                    },
                    {
                        "product_site": "http://www.shindigz.com/barbie-dreamhouse-adventures-personalized-kids-tumbler/p/CUPKTU-LAW0002-HDR",
                        "dark_pattern": [
                            {
                                "type": "Activity Notification",
                                "instance": [
                                    "                Log In       My Projects      Wish List       Cart 0  Loading...        0   ",
                                    "     Log In       My Projects      Wish List       Cart 0  Loading...    ",
                                    "   Cart 0  Loading... "
                                ]
                            }
                        ]
                    },
                    {
                        "product_site": "http://www.shindigz.com/barbie-dreamhouse-adventures-personalized-favor-bags/p/FAVFBK-LAW0002-HDR",
                        "dark_pattern": [
                            {
                                "type": "Activity Notification",
                                "instance": [
                                    "                Log In       My Projects      Wish List       Cart 0  Loading...        0   ",
                                    "     Log In       My Projects      Wish List       Cart 0  Loading...    ",
                                    "   Cart 0  Loading... "
                                ]
                            }
                        ]
                    },
                    {
                        "product_site": "http://www.shindigz.com/barbie-dreamhouse-adventures-personalized-sticker/p/STWPC-LAW0002-HDR",
                        "dark_pattern": [
                            {
                                "type": "Activity Notification",
                                "instance": [
                                    "                Log In       My Projects      Wish List       Cart 0  Loading...        0   ",
                                    "     Log In       My Projects      Wish List       Cart 0  Loading...    ",
                                    "   Cart 0  Loading... "
                                ]
                            }
                        ]
                    },
                    {
                        "product_site": "http://www.shindigz.com/barbie-dreamhouse-adventures-3d-dreamhouse/p/KSCBDH",
                        "dark_pattern": [
                            {
                                "type": "Activity Notification",
                                "instance": [
                                    "                Log In       My Projects      Wish List       Cart 0  Loading...        0   ",
                                    "     Log In       My Projects      Wish List       Cart 0  Loading...    ",
                                    "   Cart 0  Loading... "
                                ]
                            }
                        ]
                    },
                    {
                        "product_site": "https://www.shindigz.com/graduation-sidewalk-yard-signs/p/YDSCAP",
                        "dark_pattern": []
                    },
                    {
                        "product_site": "https://www.shindigz.com/congrats-grad-2020-yard-sign-expression-set-blue-white/p/YDSGRAD3",
                        "dark_pattern": [
                            {
                                "type": "Activity Notification",
                                "instance": [
                                    "                Log In       My Projects      Wish List       Cart 0  Loading...        0   ",
                                    "     Log In       My Projects      Wish List       Cart 0  Loading...    ",
                                    "   Cart 0  Loading... "
                                ]
                            }
                        ]
                    },
                    {
                        "product_site": "https://www.shindigz.com/k-thru-12-photo-yard-signs/p/YDSK12",
                        "dark_pattern": []
                    },
                    {
                        "product_site": "https://www.shindigz.com/yard-sign-expression-letter-a/p/YDSA",
                        "dark_pattern": []
                    }
                ]
            },
            {
                "domain": "http://www.cbsstore.com",
                "result": [
                    {
                        "product_site": "http://www.cbsstore.com/collections/the-late-show-with-stephen-colbert/products/the-late-show-with-stephen-colbert-be-your-own-president-white-mug",
                        "dark_pattern": []
                    },
                    {
                        "product_site": "http://www.cbsstore.com/collections/the-late-show-with-stephen-colbert/products/the-late-show-with-stephen-colbert-be-your-own-president-mens-classic-short-sleeve-t-shirt",
                        "dark_pattern": []
                    },
                    {
                        "product_site": "http://www.cbsstore.com/collections/the-late-show-with-stephen-colbert/products/the-late-show-with-stephen-colbert-be-your-own-president-washable-face-mask",
                        "dark_pattern": []
                    },
                    {
                        "product_site": "http://www.cbsstore.com/collections/the-late-show-with-stephen-colbert/products/the-late-show-with-stephen-colbert-be-your-own-president-17-oz-pint-glass",
                        "dark_pattern": []
                    },
                    {
                        "product_site": "http://www.cbsstore.com/collections/face-masks/products/survivor-20-years-40-seasons-all-over-black-and-yellow-tribal-pattern-washable-face-mask",
                        "dark_pattern": []
                    },
                    {
                        "product_site": "http://www.cbsstore.com/collections/face-masks/products/survivor-20-years-40-seasons-all-over-color-logo-pattern-washable-face-mask",
                        "dark_pattern": []
                    },
                    {
                        "product_site": "http://www.cbsstore.com/collections/face-masks/products/star-trek-picard-borg-face-mask",
                        "dark_pattern": []
                    },
                    {
                        "product_site": "http://www.cbsstore.com/collections/face-masks/products/star-trek-picard-collage-face-mask-cover",
                        "dark_pattern": []
                    },
                    {
                        "product_site": "http://www.cbsstore.com/collections/face-masks/products/ncis-mash-up-washable-face-mask",
                        "dark_pattern": []
                    },
                    {
                        "product_site": "http://www.cbsstore.com/collections/star-trek-discovery-pride/products/star-trek-discovery-live-long-pride-adult-short-sleeve-t-shirt",
                        "dark_pattern": []
                    }
                ]
            },
            {
                "domain": "http://www.80stees.com",
                "result": [
                    {
                        "product_site": "http://www.80stees.com/products/wwe-legends-fathers-day-t-shirt",
                        "dark_pattern": []
                    },
                    {
                        "product_site": "http://www.80stees.com/products/turtley-awesome-father-t-shirt",
                        "dark_pattern": []
                    },
                    {
                        "product_site": "http://www.80stees.com/products/he-man-greatest-father-masters-of-the-universe-t-shirt",
                        "dark_pattern": []
                    },
                    {
                        "product_site": "http://www.80stees.com/products/best-pops-ever-popeye-t-shirt",
                        "dark_pattern": []
                    },
                    {
                        "product_site": "http://www.80stees.com/products/optimus-prime-heroic-fathers-day-transformers-t-shirt",
                        "dark_pattern": []
                    },
                    {
                        "product_site": "http://www.80stees.com/products/delorean-neon-outline-back-to-the-future-t-shirt",
                        "dark_pattern": []
                    },
                    {
                        "product_site": "http://www.80stees.com/products/expert-rulebook-dungeons-dragons-t-shirt",
                        "dark_pattern": []
                    },
                    {
                        "product_site": "http://www.80stees.com/products/vintage-hysteria-def-leppard-t-shirt",
                        "dark_pattern": []
                    },
                    {
                        "product_site": "http://www.80stees.com/products/pattern-is-full-top-gun-t-shirt",
                        "dark_pattern": []
                    },
                    {
                        "product_site": "http://www.80stees.com/products/distressed-save-ferris-bueller-t-shirt",
                        "dark_pattern": []
                    }
                ]
            },
            {
                "domain": "http://www.boomkat.com",
                "result": [
                    {
                        "product_site": "https://boomkat.com/products/music-for-inner-peace",
                        "dark_pattern": []
                    },
                    {
                        "product_site": "https://boomkat.com/products/do-you-ever-regret-pantomime",
                        "dark_pattern": []
                    },
                    {
                        "product_site": "https://boomkat.com/products/flowers-of-the-revolution",
                        "dark_pattern": []
                    },
                    {
                        "product_site": "http://www.boomkat.com/products/flowers-of-the-revolution",
                        "dark_pattern": []
                    },
                    {
                        "product_site": "http://www.boomkat.com/products/music-sounds-better-with-shoe",
                        "dark_pattern": []
                    },
                    {
                        "product_site": "http://www.boomkat.com/products/music-for-inner-peace",
                        "dark_pattern": []
                    },
                    {
                        "product_site": "http://www.boomkat.com/products/kaloli-b6257566-2e14-46a5-ac55-6423bb31e9e3",
                        "dark_pattern": []
                    },
                    {
                        "product_site": "http://www.boomkat.com/products/pot-boilers-ron-geesin-soundtracks-to-stephen-dwoskin-films-1966-1970",
                        "dark_pattern": []
                    },
                    {
                        "product_site": "http://www.boomkat.com/products/kistvaen",
                        "dark_pattern": []
                    },
                    {
                        "product_site": "http://www.boomkat.com/products/saturday-night-180fc2e3-36ac-4860-9f44-d787b637b013",
                        "dark_pattern": []
                    }
                ]
            },
            {
                "domain": "http://www.filmtools.com",
                "result": [
                    {
                        "product_site": "https://www.filmtools.com/epiphan-pearl-mini-live-video-production-system.html",
                        "dark_pattern": [
                            {
                                "type": "Activity Notification",
                                "instance": [
                                    "Questions about this product?"
                                ]
                            }
                        ]
                    },
                    {
                        "product_site": "https://www.filmtools.com/g-technology-g-speed-shuttle-40tb-4-bay-thunderbolt-3-raid-array-4-x-10tb.html",
                        "dark_pattern": [
                            {
                                "type": "Activity Notification",
                                "instance": [
                                    "Questions about this product?"
                                ]
                            }
                        ]
                    },
                    {
                        "product_site": "https://www.filmtools.com/atomos-ninja-v-4k-hdmi-recording-monitor-pro-kit-with-atomx-sdi-module.html",
                        "dark_pattern": [
                            {
                                "type": "Activity Notification",
                                "instance": [
                                    "Questions about this product?"
                                ]
                            }
                        ]
                    },
                    {
                        "product_site": "https://www.filmtools.com/canon-cine-servo-25-250mm-t2-95-3-95-cinema-lens.html",
                        "dark_pattern": [
                            {
                                "type": "Activity Notification",
                                "instance": [
                                    "Questions about this product?"
                                ]
                            }
                        ]
                    },
                    {
                        "product_site": "https://www.filmtools.com/epiphan-av-io-hd-usb-3-1-gen-1-video-grabber.html",
                        "dark_pattern": [
                            {
                                "type": "Activity Notification",
                                "instance": [
                                    "Questions about this product?"
                                ]
                            }
                        ]
                    },
                    {
                        "product_site": "https://www.filmtools.com/canon-eos-1d-x-mark-iii-dslr-camera-body-only.html",
                        "dark_pattern": [
                            {
                                "type": "Activity Notification",
                                "instance": [
                                    "Questions about this product?"
                                ]
                            }
                        ]
                    },
                    {
                        "product_site": "https://www.filmtools.com/digital-sputnik-voyager-led-tube-light-4ft-or-2ft.html",
                        "dark_pattern": [
                            {
                                "type": "Activity Notification",
                                "instance": [
                                    "Questions about this product?"
                                ]
                            }
                        ]
                    },
                    {
                        "product_site": "https://www.filmtools.com/canon-eos-c300-markiii-4k-super35mm-cinema-camera.html",
                        "dark_pattern": [
                            {
                                "type": "Activity Notification",
                                "instance": [
                                    "Questions about this product?"
                                ]
                            }
                        ]
                    },
                    {
                        "product_site": "https://www.filmtools.com/nanlite-pavotube-ii-6c-rgbww-10-led-tube.html",
                        "dark_pattern": [
                            {
                                "type": "Activity Notification",
                                "instance": [
                                    "Questions about this product?"
                                ]
                            }
                        ]
                    },
                    {
                        "product_site": "https://www.filmtools.com/canon-eos-r5-mirrorless-digital-8k-camera.html",
                        "dark_pattern": [
                            {
                                "type": "Activity Notification",
                                "instance": [
                                    "Questions about this product?"
                                ]
                            }
                        ]
                    }
                ]
            }
        ]
    }
}